Reproducible results with set.seed() - mrgsolve
…
filter(single, CENT==0)

. # A tibble: 100 × 5
.       ID  time  CENT         ETA1       ETA2
.    <dbl> <dbl> <dbl>        <dbl>      <dbl>
. 1      1     0     0  1.750213445 -1.4039864
. 2      2     0     0  0.001895138 -0.4166968
. 3      3     0     0  1.256800750  1.8848786
. 4      4     0     0  0.554256714  0.3604565
. 5      5     0     0  0.863013016 -2.7905992
. 6      6     0     0 -0.912913979 -0.2230077
. 7      7     0     0 -1.115146326  0.5475111
. 8      8     0     0 -0.107813133 -1.1916863
. 9      9     0     0 -0.404706061  0.6596371
. 10    10     0     0 -1.239534133 -1.0627988
. # ... with 90 more rows

filter(multi, CENT==0)

. # A tibble: 100 × 5
.       ID  time  CENT         ETA1       ETA2
.    <dbl> <dbl> <dbl>        <dbl>      <dbl>
. 1      1     0     0  1.750213445 -1.4039864
. 2      2     0     0  0.001895138 -0.4166968
. 3      3     0     0  1.256800750  1.8848786
. 4      4     0     0  0.554256714  0.3604565
. 5      5     0     0  0.863013016 -2.7905992
. 6      6     0     0 -0.912913979 -0.2230077
. 7      7     0     0 -1.115146326  0.5475111
. 8      8     0     0 -0.107813133 -1.1916863
. 9      9     0     0 -0.404706061  0.6596371
. 10    10     0     0 -1.239534133 -1.0627988
. # ... with 90 more rows
…
identical(filter(single, time < 24),filter(multi,time < 24))

. [1] TRUE

… but not after that

filter(single, time > 24)

. # A tibble: 0 × 5
. # ... with 5 variables: ID <dbl>, time <dbl>, CENT <dbl>, ETA1 <dbl>,
. #   ETA2 <dbl>

filter(multi, time > 24)

. # A tibble: 21,600 × 5
.       ID  time      CENT     ETA1      ETA2
.    <dbl> <dbl>     <dbl>    <dbl>     <dbl>
. 1      1    25 123.77342 1.750213 -1.403986
. 2      1    26 117.73692 1.750213 -1.403986
. 3      1    27 111.99482 1.750213 -1.403986
. 4      1    28 106.53277 1.750213 -1.403986
. 5      1    29 101.33711 1.750213 -1.403986
. 6      1    30  96.39484 1.750213 -1.403986
. 7      1    31  91.69361 1.750213 -1.403986
. 8      1    32  87.22166 1.750213 -1.403986
. 9      1    33  82.96781 1.750213 -1.403986
. 10     1    34  78.92142 1.750213 -1.403986
. # ... with 21,590 more rows
…
