A Complete Example - mrgsolve
…
Patients with weight less than 90 kg get a certain dose while patients with weight greater than 90 kg get a higher dose

Dosing proceeds Q24H x 10 doses

set.seed(33020)
idata <- 
  data_frame(ID=1:2000) %>% 
  mutate_random(WT[50,110] ~ rnorm(80,30)) %>% 
  mutate_random(SEX ~ rbinomial(0.7)) %>%
  mutate(dosegr = as.integer(WT > 90))

idata

. # A tibble: 2,000 × 4
.       ID        WT   SEX dosegr
.    <int>     <dbl> <dbl>  <int>
. 1      1  52.55769     0      0
. 2      2  83.70744     1      0
. 3      3  51.89124     1      0
. 4      4  94.74218     0      1
. 5      5  97.75528     1      1
. 6      6  57.07921     1      0
. 7      7 101.32264     0      1
. 8      8  73.03274     0      0
. 9      9  56.29030     1      0
. 10    10  69.70190     1      0
. # ... with 1,990 more rows
…
